{
  "name": "virtulleum-website",
  "private": true,
  "description": "A website for the Virtuelleum",
  "version": "0.1.0",
  "author": "Fluxguide <dev@fluxguide.com>",
  "dependencies": {
    "jquery": "^3.5.1"
  },
  "devDependencies": {
    "prettier": "^1.18.2"
  },
  "keywords": [
    "gatsby"
  ],
  "license": "MIT",
  "scripts": {
    "build": "gatsby build",
    "dev": "gatsby develop",
    "format": "prettier --write src/**/*.{js,jsx}",
    "start": "npm run dev",
    "serve": "gatsby serve",
    "test": "echo \"Write tests! -> https://gatsby.dev/unit-testing\"",
    "prebuild": "rm -rf .cache",
    "predev": "rm -rf .cache",
    "dummy": "rm -rf .cache"
  },
  "repository": {
    "type": "git",
    "url": "git@bitbucket.org:fluxguide/virtulleum-website.git"
  }
}
