<svg class="dice_11_icon dice_icon" xmlns="http://www.w3.org/2000/svg" viewBox="0 0 50 50">
    <path fill="#FB8181" d="M39.89,25.91a6.39,6.39,0,0,0-1.22-2.73.09.09,0,0,0,0-.05L38.9,9.5a.55.55,0,0,0-.16-.38A.56.56,0,0,0,38.35,9L11.66,11.42a.5.5,0,0,0-.45.5v9.24A32.09,32.09,0,0,0,10,25.89a5.28,5.28,0,0,0,1.44,4.63v10a.5.5,0,0,0,.17.37A.51.51,0,0,0,12,41h0l26.27-2.5a.51.51,0,0,0,.46-.5v-5.4A10.15,10.15,0,0,0,39.89,25.91Zm-2.8,7.31c-1.48,1.65-3.65,2.31-6.53,2-2.62,0-11.5-1.89-15.28-3.26a.52.52,0,0,0-.11-.07.39.39,0,0,0-.18,0,5.48,5.48,0,0,1-1.21-.58,6.71,6.71,0,0,1-2.62-3.08c1.36,1.07,3.74,1.69,6.07,2.3l1.86.5.11,0c3.37,1,5.67,1.6,8.4,1.6a23.85,23.85,0,0,0,5.3-.68,5.24,5.24,0,0,0,4.36-4.24,8.2,8.2,0,0,0-1.07-5.25l.15.11a4.9,4.9,0,0,1,2.58,3.61A8.89,8.89,0,0,1,37.09,33.22ZM12.46,31.48l.72.56a4.12,4.12,0,0,0,.72.4,5.32,5.32,0,0,1-1.35.31h-.09Zm1-13.48.22-.49c.61-1.36,1.08-2.43,3.68-2.17l1.18.12c2.93.28,8.38.8,9.33,1.68a29.41,29.41,0,0,0,5.66,3.69,7.45,7.45,0,0,1,2.74,6.67,4.24,4.24,0,0,1-3.6,3.43c-5.53,1.27-7.94.59-13.21-.91l-.11,0c-.6-.17-1.24-.33-1.88-.5-3.27-.85-6.66-1.73-6.44-3.62v0A37.63,37.63,0,0,1,13.47,18ZM37.7,22.27l-.8-.57-.51-.35a4.94,4.94,0,0,0,1.33-.5Zm-25.49-9.9,3.43-.31a5.56,5.56,0,0,1-1.67.43.5.5,0,0,0-.5.5.5.5,0,0,0,.5.5c.34,0,2.54-.35,2.89-1.22a.58.58,0,0,0,0-.32l21-1.91,0,1.91a.49.49,0,0,0-.38.3,4.62,4.62,0,0,1-2,.62.5.5,0,0,0-.5.5.5.5,0,0,0,.5.5,6.17,6.17,0,0,0,2.33-.66l0,2.16a.49.49,0,0,0-.34.29,4.62,4.62,0,0,1-2,.62.5.5,0,0,0-.5.5.5.5,0,0,0,.5.5,6.37,6.37,0,0,0,2.3-.64l0,3a.44.44,0,0,0-.38.29,4.54,4.54,0,0,1-2,.63.46.46,0,0,0-.23.06L34.06,20l0,0h0l-.53-.29c.73-.19,1.56-.52,1.76-1A.5.5,0,0,0,35,18a.49.49,0,0,0-.64.26,4.49,4.49,0,0,1-2,.63.65.65,0,0,0-.21,0,21.83,21.83,0,0,1-3.6-2.5c-1.1-1-5.13-1.48-9.91-1.94l-.16,0a1.66,1.66,0,0,0,.95-.75.51.51,0,0,0-.27-.67.48.48,0,0,0-.64.26,4.49,4.49,0,0,1-2,.63.49.49,0,0,0-.48.43c-2.13.23-2.77,1.61-3.28,2.76-.07.16-.14.31-.22.47l-.35.81ZM34.09,37.9a1.5,1.5,0,0,0,.8-.68.5.5,0,0,0-.27-.66.47.47,0,0,0-.64.26,4.62,4.62,0,0,1-2,.62.51.51,0,0,0-.5.5.59.59,0,0,0,0,.2l-7.65.73c.78-.17,1.83-.51,2.06-1.09a.52.52,0,0,0-.27-.67.49.49,0,0,0-.64.26,4.54,4.54,0,0,1-2,.63.5.5,0,0,0-.16,1L12.46,40v-.28c.69-.09,2.33-.45,2.63-1.2a.52.52,0,0,0-.27-.66.48.48,0,0,0-.64.26,4.31,4.31,0,0,1-1.72.6v-5l.09,0a5.78,5.78,0,0,0,2.55-.82,71.88,71.88,0,0,0,8.67,2.26l-.05.06a4.49,4.49,0,0,1-2,.63.5.5,0,0,0-.5.5.5.5,0,0,0,.5.5c.34,0,2.54-.36,2.89-1.23a.57.57,0,0,0,0-.29,49.38,49.38,0,0,0,5.17.8s0,0,0,.05a4.54,4.54,0,0,1-2,.63.5.5,0,0,0-.5.5.5.5,0,0,0,.5.5c.2,0,2.52-.3,2.89-1.23a.53.53,0,0,0,0-.41,12.46,12.46,0,0,0,1.33.08A7.49,7.49,0,0,0,37.74,34v3.56Z"/>
    <path fill="#FB8181" d="M17.57,22.75a4.71,4.71,0,0,0,.81,3.73,5.11,5.11,0,0,0,3.76,1.82l.73,0c3.49,0,5.42-2.2,5.79-4.51a4.17,4.17,0,0,0-.91-3.34,5.64,5.64,0,0,0-4.22-1.91C20.53,18.46,18,20.19,17.57,22.75Zm5.69-3.18h.23A4.68,4.68,0,0,1,27,21.11a3.15,3.15,0,0,1,.69,2.55c-.39,2.45-2.52,3.88-5.45,3.64a4.13,4.13,0,0,1-3-1.43,3.73,3.73,0,0,1-.62-2.94C18.92,20.9,20.8,19.57,23.26,19.57Z"/>
    <path fill="#FB8181" d="M21.13,25.88a.47.47,0,0,0,.28.09.49.49,0,0,0,.41-.23.5.5,0,0,0-.14-.69,1.82,1.82,0,0,1-1-1.95A2.13,2.13,0,0,1,22,21.57a.5.5,0,0,0,.42-.57.51.51,0,0,0-.57-.42,3.09,3.09,0,0,0-2.17,2.31A2.76,2.76,0,0,0,21.13,25.88Z"/>
    <path fill="#FB8181" d="M21.88,23.45a1.79,1.79,0,1,0,1.79-1.79A1.79,1.79,0,0,0,21.88,23.45Zm1.79-.79a.79.79,0,1,1-.79.79A.79.79,0,0,1,23.67,22.66Z"/>
    <path fill="#FB8181" d="M14.62,20.92l.13,0a.5.5,0,0,0,.48-.37c.5-1.79,1-3.48,4.87-2.8a.5.5,0,1,0,.17-1c-4.8-.83-5.49,1.69-6,3.52A.49.49,0,0,0,14.62,20.92Z"/>
    <path fill="#FB8181" d="M20,37.52a.47.47,0,0,0-.64.26,4.62,4.62,0,0,1-2,.62.51.51,0,0,0-.5.5.5.5,0,0,0,.5.5c.34,0,2.54-.35,2.89-1.22A.5.5,0,0,0,20,37.52Z"/>
    <path fill="#FB8181" d="M15.88,34.33a.48.48,0,0,0-.64.27,4.67,4.67,0,0,1-2,.62.5.5,0,1,0,0,1c.2,0,2.52-.29,2.89-1.22A.53.53,0,0,0,15.88,34.33Z"/>
    <path fill="#FB8181" d="M21.54,13.9c.35,0,2.54-.35,2.89-1.23a.5.5,0,0,0-.27-.66.49.49,0,0,0-.64.26,4.49,4.49,0,0,1-2,.63.5.5,0,0,0-.5.5A.51.51,0,0,0,21.54,13.9Z"/>
    <path fill="#FB8181" d="M20,34.89a.48.48,0,0,0-.64.26,4.49,4.49,0,0,1-2,.63.5.5,0,0,0-.5.5.51.51,0,0,0,.5.5c.34,0,2.54-.36,2.89-1.23A.51.51,0,0,0,20,34.89Z"/>
    <path fill="#FB8181" d="M30.94,16.42c.2,0,2.52-.29,2.89-1.22a.53.53,0,0,0-.27-.67.49.49,0,0,0-.64.27,4.67,4.67,0,0,1-2,.62.5.5,0,0,0-.5.5A.5.5,0,0,0,30.94,16.42Z"/>
    <path fill="#FB8181" d="M32.25,13c.35,0,2.54-.35,2.89-1.22a.51.51,0,0,0-.27-.67.49.49,0,0,0-.64.26,4.49,4.49,0,0,1-2,.63.5.5,0,0,0,0,1Z"/>
    <path fill="#FB8181" d="M26.8,14.76c.2,0,2.52-.3,2.89-1.23a.52.52,0,0,0-.27-.66.49.49,0,0,0-.64.26,4.54,4.54,0,0,1-2,.63.5.5,0,0,0-.5.5A.5.5,0,0,0,26.8,14.76Z"/>
</svg>