<svg xmlns="http://www.w3.org/2000/svg" viewBox="0 0 17 17" class="close_icon">
  <path d="M-2232-3281l-7.5,7.5,7.5-7.5-7.5-7.5,7.5,7.5,7.5-7.5-7.5,7.5,7.5,7.5Z" transform="translate(2240.5 3289.5)"/>
</svg>
