<svg class="fb_icon" data-name="Gruppe 566" xmlns="http://www.w3.org/2000/svg" viewBox="0 0 72 72">
  <path d="M8,0H64a8.024,8.024,0,0,1,8,8V64a8.024,8.024,0,0,1-8,8H8a8.024,8.024,0,0,1-8-8V8A8.024,8.024,0,0,1,8,0Z" fill="#fff" fill-rule="evenodd"/>
  <path d="M60.5,13.4v9.3H55c-4.3,0-5.2,2.1-5.2,5.1v6.7H60.1L58.8,44.9h-9V72H39V44.9H30V34.5h9V26.8C39,17.9,44.4,13,52.4,13,56.2,13,59.5,13.3,60.5,13.4Z" fill="#21a0a1" fill-rule="evenodd"/>
</svg>
