<?xml version="1.0" encoding="utf-8"?>
<svg version="1.1" id="Ebene_1" xmlns="http://www.w3.org/2000/svg" xmlns:xlink="http://www.w3.org/1999/xlink" x="0px" y="0px"
	 viewBox="0 0 142.32 56.55" style="enable-background:new 0 0 142.32 56.55;" xml:space="preserve">
    <style type="text/css">
        .st0{clip-path:url(#tulln_erleben_mask_2);fill:#fff;}
        .st1{clip-path:url(#tulln_erleben_mask_2);fill:#fff;}
    </style>
    <g>
        <defs>
            <rect id="tullln_erleben_mask_1" y="0.08" width="142.2" height="56.59"/>
        </defs>
        <clipPath id="tulln_erleben_mask_2">
            <use xlink:href="#tullln_erleben_mask_1"  style="overflow:visible;"/>
        </clipPath>
        <path class="st0" d="M14.62,27.38c-0.05,0.06-0.12,0.12-0.32,0.12c-1.51,0.04-3.68-0.6-4.26-1.11c0.09-0.22,0.19-0.47,0.3-0.74
            c0.45-1.15,1.55-3.91,2.36-5.11c0.47,0.09,0.94,0.1,1.4,0.06l0.86,5.47C14.96,26.42,14.87,27.1,14.62,27.38 M5.1,21.43
            c-0.34,0.19-0.94,0.42-1.28,0.33c-0.08-0.02-0.16-0.06-0.26-0.23c-0.77-1.34-1.28-3.61-1.13-4.37c0.23-0.03,0.49-0.06,0.77-0.1
            c1.12-0.14,3.71-0.46,5.2-0.38c0.17,0.53,0.4,1.03,0.71,1.48L5.1,21.43z M2.71,9.63C2.68,9.56,2.66,9.47,2.73,9.28
            c0.57-1.44,2.02-3.23,2.7-3.57C5.59,5.89,5.78,6.08,5.98,6.3c0.93,0.99,3.29,3.49,3.78,4.65c-0.28,0.29-0.53,0.6-0.75,0.95
            l-5.27-1.41C3.43,10.34,2.86,9.98,2.71,9.63 M13.03,2.73c0.05-0.06,0.11-0.12,0.31-0.14c1.5-0.13,3.71,0.38,4.32,0.85
            c-0.08,0.22-0.16,0.48-0.25,0.76c-0.4,1.2-1.37,4.14-2.12,5.33c-0.06-0.02-0.12-0.04-0.18-0.06c-0.4-0.11-0.81-0.17-1.2-0.19
            l-1.13-5.23C12.75,3.72,12.8,3.03,13.03,2.73 M23.23,8.49c0.31-0.13,0.96-0.3,1.31-0.16c0.07,0.03,0.15,0.07,0.23,0.26
            c0.59,1.43,0.82,3.75,0.57,4.49c-0.23-0.01-0.49-0.01-0.78-0.01c-1.35-0.01-4.81-0.04-5.91-0.5c-0.15-0.33-0.32-0.64-0.53-0.93
            L23.23,8.49z M12.84,18.03c-1.65-0.46-2.62-2.22-2.17-3.91c0.45-1.69,2.15-2.7,3.8-2.24c1.65,0.46,2.62,2.22,2.17,3.91
            C16.19,17.49,14.49,18.49,12.84,18.03 M24.95,19.44c0.03,0.07,0.05,0.16-0.02,0.35c-0.59,1.43-2.06,3.2-2.75,3.53
            c-0.15-0.17-0.34-0.37-0.54-0.59c-0.84-0.91-2.86-3.13-3.56-4.38c0.27-0.38,0.5-0.79,0.68-1.24l5.18,1.46
            C24.28,18.73,24.81,19.1,24.95,19.44 M20.53,25.16c0.27,0.31,0.6,0.52,0.97,0.62c0.29,0.08,0.6,0.1,0.93,0.04
            c1.97-0.34,4.08-3.52,4.72-5.06c0.32-0.76,0.33-1.55,0.03-2.28c-0.59-1.46-2.22-2.17-2.41-2.25l-2.54-0.72
            c0.74,0.03,1.51,0.04,2.3,0.04c0.38,0,0.71,0.01,0.97,0.01c0.73,0.02,1.36-0.32,1.77-0.95c1.12-1.7,0.35-5.46-0.29-7
            C26.68,6.84,26.13,6.29,25.42,6c-1.43-0.57-3.06,0.15-3.24,0.24l-3.72,2.29c0.43-1.06,0.84-2.27,1.25-3.52
            c0.12-0.37,0.23-0.69,0.32-0.94c0.25-0.7,0.13-1.42-0.32-2.03c-1.22-1.63-4.93-2.06-6.55-1.92c-0.8,0.07-1.49,0.43-1.98,1.04
            c-0.98,1.22-0.82,3.04-0.8,3.24l0.95,4.4c-0.85-1.26-2.18-2.72-3.59-4.22C7.46,4.28,7.23,4.04,7.05,3.84
            c-0.5-0.55-1.17-0.77-1.9-0.63C3.18,3.58,1.11,6.78,0.49,8.33c-0.31,0.77-0.31,1.56,0,2.28c0.61,1.46,2.25,2.14,2.44,2.21
            l0.06,0.02l4.99,1.34c-1.43-0.02-3.21,0.17-5.06,0.41c-0.37,0.05-0.7,0.09-0.96,0.12c-0.72,0.08-1.31,0.5-1.64,1.18
            c-0.9,1.84,0.33,5.46,1.16,6.91c0.4,0.69,0.98,1.17,1.7,1.36c0.02,0.01,0.05,0.01,0.07,0.02c1.49,0.38,3.01-0.56,3.18-0.66
            l3.33-2.7c-0.56,1.14-1.11,2.49-1.67,3.89c-0.14,0.36-0.26,0.67-0.37,0.92c-0.28,0.69-0.21,1.42,0.2,2.05
            c0.58,0.88,1.85,1.48,3.17,1.85c1.22,0.34,2.48,0.48,3.26,0.46c0.81-0.02,1.51-0.34,2.03-0.92c1.05-1.16,0.99-2.98,0.98-3.19
            l-0.15-0.97c1.21,2.94,3.2,15.77-0.5,31.4l2.39,0.35c3.66-15.73,1.66-29.5,0.35-32.69c0.13,0.15,0.27,0.29,0.4,0.44
            C20.13,24.71,20.36,24.96,20.53,25.16"/>
        <path class="st0" d="M40.18,25.6V5.13h-6.04C33.38,5.13,33,4.5,33,3.24V2.06c0-1.26,0.38-1.9,1.14-1.9H52.1
            c0.76,0,1.14,0.63,1.14,1.9v1.18c0,1.26-0.38,1.9-1.14,1.9h-6.04V25.6c0,0.81-0.76,1.22-2.28,1.22h-1.33
            C40.94,26.82,40.18,26.41,40.18,25.6"/>
        <path class="st0" d="M56.05,17.85V1.3c0-0.81,0.76-1.22,2.28-1.22h1.29c1.52,0,2.28,0.41,2.28,1.22v16.18
            c0,1.34,0.48,2.44,1.44,3.3c0.96,0.86,2.2,1.29,3.72,1.29c1.52,0,2.76-0.43,3.74-1.29c0.97-0.86,1.46-1.96,1.46-3.3V1.3
            c0-0.81,0.76-1.22,2.28-1.22h1.25c1.52,0,2.28,0.41,2.28,1.22v16.56c0,2.91-0.96,5.17-2.89,6.78c-1.93,1.61-4.63,2.41-8.13,2.41
            c-3.49,0-6.2-0.8-8.13-2.41C57.01,23.03,56.05,20.77,56.05,17.85"/>
        <path class="st0" d="M83.2,25.22V1.3c0-0.81,0.76-1.22,2.28-1.22h1.29c1.52,0,2.28,0.41,2.28,1.22v20.47h8.47
            c0.76,0,1.14,0.63,1.14,1.9v1.18c0,1.27-0.38,1.9-1.14,1.9h-12.8C83.71,26.74,83.2,26.23,83.2,25.22"/>
        <path class="st0" d="M101.58,25.22V1.3c0-0.81,0.76-1.22,2.28-1.22h1.29c1.52,0,2.28,0.41,2.28,1.22v20.47h8.47
            c0.76,0,1.14,0.63,1.14,1.9v1.18c0,1.27-0.38,1.9-1.14,1.9h-12.8C102.08,26.74,101.58,26.23,101.58,25.22"/>
        <path class="st0" d="M119.96,25.6V1.3c0-0.81,0.76-1.22,2.28-1.22h1.63c1.21,0,2.05,0.34,2.51,1.03l9.99,15.38V1.3
            c0-0.81,0.76-1.22,2.28-1.22h1.1c1.52,0,2.28,0.41,2.28,1.22v24.3c0,0.81-0.76,1.22-2.28,1.22h-1.44c-1.21,0-2.05-0.34-2.5-1.02
            l-10.18-15.57V25.6c0,0.81-0.76,1.22-2.28,1.22h-1.1C120.71,26.82,119.96,26.41,119.96,25.6"/>
        <path class="st1" d="M36.43,55.03V37.48c0-0.55,0.27-0.82,0.82-0.82h9.57c0.37,0,0.55,0.27,0.55,0.82v0.44
            c0,0.55-0.18,0.82-0.55,0.82h-7.98v6.25H46c0.37,0,0.55,0.27,0.55,0.82v0.44c0,0.55-0.18,0.82-0.55,0.82h-7.16v6.69h8.01
            c0.37,0,0.55,0.27,0.55,0.82v0.44c0,0.55-0.18,0.82-0.55,0.82h-9.6C36.7,55.85,36.43,55.58,36.43,55.03"/>
        <path class="st1" d="M53.81,45.32h3.62c0.97,0,1.8-0.33,2.48-1c0.69-0.67,1.03-1.5,1.03-2.5c0-1-0.33-1.76-0.99-2.29
            c-0.66-0.53-1.56-0.79-2.72-0.79h-3.43V45.32z M51.4,55.3V37.48c0-0.55,0.27-0.82,0.82-0.82h4.61c2.19,0,3.84,0.39,4.95,1.17
            c1.1,0.78,1.66,2.01,1.66,3.69c0,2.25-1.05,3.79-3.15,4.63v0.11c0.53,0.18,0.97,0.54,1.33,1.07c0.36,0.53,0.74,1.32,1.14,2.36
            l2.14,5.4c0.06,0.16,0.08,0.29,0.08,0.38c0,0.29-0.38,0.44-1.15,0.44h-0.28c-0.62,0-0.99-0.15-1.1-0.44l-2.08-5.37
            c-0.4-1.04-0.9-1.75-1.51-2.12c-0.6-0.38-1.46-0.56-2.58-0.56h-2.47v7.9c0,0.4-0.37,0.6-1.1,0.6H52.5
            C51.77,55.91,51.4,55.71,51.4,55.3"/>
        <path class="st1" d="M68.13,55.03V37.2c0-0.4,0.36-0.6,1.1-0.6h0.22c0.73,0,1.1,0.2,1.1,0.6v16.56h7.54c0.37,0,0.55,0.27,0.55,0.82
            v0.44c0,0.55-0.18,0.82-0.55,0.82h-9.13C68.4,55.85,68.13,55.58,68.13,55.03"/>
        <path class="st1" d="M81.4,55.03V37.48c0-0.55,0.27-0.82,0.82-0.82h9.57c0.36,0,0.55,0.27,0.55,0.82v0.44
            c0,0.55-0.18,0.82-0.55,0.82h-7.98v6.25h7.16c0.37,0,0.55,0.27,0.55,0.82v0.44c0,0.55-0.18,0.82-0.55,0.82h-7.16v6.69h8.01
            c0.37,0,0.55,0.27,0.55,0.82v0.44c0,0.55-0.18,0.82-0.55,0.82h-9.6C81.67,55.85,81.4,55.58,81.4,55.03"/>
        <path class="st1" d="M98.79,53.77h4c1.21,0,2.14-0.32,2.8-0.95c0.66-0.63,0.99-1.48,0.99-2.54c0-1.06-0.36-1.87-1.08-2.43
            c-0.72-0.56-1.78-0.84-3.17-0.84h-3.54V53.77z M98.79,44.94h3.18c1.1,0,2-0.31,2.72-0.93c0.71-0.62,1.07-1.41,1.07-2.37
            c0-0.96-0.31-1.68-0.93-2.17c-0.62-0.48-1.61-0.73-2.96-0.73h-3.07V44.94z M96.37,55.03V37.48c0-0.55,0.27-0.82,0.82-0.82h4.91
            c1.99,0,3.51,0.44,4.57,1.32c1.05,0.88,1.58,2.06,1.58,3.54c0,0.91-0.3,1.78-0.9,2.6c-0.6,0.82-1.31,1.34-2.11,1.56v0.11
            c0.27,0.04,0.68,0.2,1.21,0.49c0.53,0.29,0.97,0.59,1.3,0.89s0.64,0.74,0.92,1.3c0.27,0.57,0.41,1.19,0.41,1.86
            c0,3.67-2.39,5.51-7.16,5.51H97.2C96.65,55.85,96.37,55.58,96.37,55.03"/>
        <path class="st1" d="M112.63,55.03V37.48c0-0.55,0.27-0.82,0.82-0.82h9.57c0.36,0,0.55,0.27,0.55,0.82v0.44
            c0,0.55-0.18,0.82-0.55,0.82h-7.98v6.25h7.16c0.37,0,0.55,0.27,0.55,0.82v0.44c0,0.55-0.18,0.82-0.55,0.82h-7.16v6.69h8.01
            c0.36,0,0.55,0.27,0.55,0.82v0.44c0,0.55-0.18,0.82-0.55,0.82h-9.6C112.91,55.85,112.63,55.58,112.63,55.03"/>
        <path class="st1" d="M127.42,55.3V37.2c0-0.4,0.36-0.6,1.1-0.6h0.57c0.51,0,0.9,0.17,1.15,0.52l8.75,13.22l0.82,1.54V37.2
            c0-0.4,0.36-0.6,1.1-0.6h0.19c0.73,0,1.1,0.2,1.1,0.6v18.1c0,0.4-0.36,0.6-1.1,0.6h-0.55c-0.48,0-0.79-0.13-0.96-0.38l-9.05-13.66
            l-0.74-1.4V55.3c0,0.4-0.37,0.6-1.1,0.6h-0.19C127.78,55.91,127.42,55.71,127.42,55.3"/>
    </g>
</svg>
