<svg xmlns="http://www.w3.org/2000/svg" class="map_marker_icon" width="17.714" height="24.296" viewBox="0 0 17.714 24.296">
  <g transform="translate(0.995)">
    <path d="M8.857,1A7.86,7.86,0,0,0,1,8.857C1,16.526,8.857,23,8.857,23s7.857-6.474,7.857-14.143A7.86,7.86,0,0,0,8.857,1Z" transform="translate(-0.995 0)"/>
    <ellipse cx="3.981" cy="3.981" rx="3.981" ry="3.981" transform="translate(4.005 5.505)"/>
  </g>
</svg>
